<table cellspacing=0 cellpadding=1 width=100% align=center border=0>
    <tbody> 
    <tr bgcolor=#ffcc33> 
      <td colspan=3 height=1> 
        <p><img height=1 src="/images/spacer.gif" width=1></p>
      </td>
    </tr>
    <tr bgcolor=#cc9933> 
      <td colspan=3 height=1> 
        <div align=center><font color=#ffffff size=2><b><img height=1 
      src="/images/spacer.gif" 
  width=1></b></font></div>
      </td>
    </tr>
    </tbody> 
  </table>
  <table width="100%" border="0">
    <tr> 
      <td width="79%"><font face="Arial, Helvetica, sans-serif"> 